{
  "$schema": "https://docs.renovatebot.com/renovate-schema.json",
  "extends": [
    "config:base",
    ":pinVersions",
    ":label(kind/renovate)"
  ],
  "regexManagers": [
    {
      "fileMatch": ["^Makefile$"],
      "matchStrings": ["ATLANTIS_VERSION\\s\\:\\=\\sv(?<currentValue>.*?)\\s"],
      "depNameTemplate": "runatlantis/atlantis",
      "datasourceTemplate": "github-releases"
    }
  ]
}
